<?xml version="1.0" encoding="UTF-8" standalone="no"?>
<!-- Created with Inkscape (http://www.inkscape.org/) -->

<svg
   xmlns:dc="http://purl.org/dc/elements/1.1/"
   xmlns:cc="http://creativecommons.org/ns#"
   xmlns:rdf="http://www.w3.org/1999/02/22-rdf-syntax-ns#"
   xmlns:svg="http://www.w3.org/2000/svg"
   xmlns="http://www.w3.org/2000/svg"
   xmlns:sodipodi="http://sodipodi.sourceforge.net/DTD/sodipodi-0.dtd"
   xmlns:inkscape="http://www.inkscape.org/namespaces/inkscape"
   width="170.67621mm"
   height="100.55161mm"
   viewBox="0 0 604.75823 356.28524"
   id="svg2"
   version="1.1"
   inkscape:version="0.91 r"
   sodipodi:docname="relation-index-and-query.svg">
  <defs
     id="defs4">
    <marker
       inkscape:isstock="true"
       style="overflow:visible"
       id="marker6942"
       refX="0"
       refY="0"
       orient="auto"
       inkscape:stockid="Arrow2Lend">
      <path
         transform="matrix(-1.1,0,0,-1.1,-1.1,0)"
         d="M 8.7185878,4.0337352 -2.2072895,0.01601326 8.7185884,-4.0017078 c -1.7454984,2.3720609 -1.7354408,5.6174519 -6e-7,8.035443 z"
         style="fill:#c8e6c9;fill-opacity:1;fill-rule:evenodd;stroke:#c8e6c9;stroke-width:0.625;stroke-linejoin:round;stroke-opacity:1"
         id="path6944"
         inkscape:connector-curvature="0" />
    </marker>
    <marker
       inkscape:isstock="true"
       style="overflow:visible"
       id="marker6884"
       refX="0"
       refY="0"
       orient="auto"
       inkscape:stockid="Arrow2Lend">
      <path
         transform="matrix(-1.1,0,0,-1.1,-1.1,0)"
         d="M 8.7185878,4.0337352 -2.2072895,0.01601326 8.7185884,-4.0017078 c -1.7454984,2.3720609 -1.7354408,5.6174519 -6e-7,8.035443 z"
         style="fill:#c8e6c9;fill-opacity:1;fill-rule:evenodd;stroke:#c8e6c9;stroke-width:0.625;stroke-linejoin:round;stroke-opacity:1"
         id="path6886"
         inkscape:connector-curvature="0" />
    </marker>
    <marker
       inkscape:isstock="true"
       style="overflow:visible"
       id="marker6874"
       refX="0"
       refY="0"
       orient="auto"
       inkscape:stockid="Arrow2Lend">
      <path
         transform="matrix(-1.1,0,0,-1.1,-1.1,0)"
         d="M 8.7185878,4.0337352 -2.2072895,0.01601326 8.7185884,-4.0017078 c -1.7454984,2.3720609 -1.7354408,5.6174519 -6e-7,8.035443 z"
         style="fill:#c8e6c9;fill-opacity:1;fill-rule:evenodd;stroke:#c8e6c9;stroke-width:0.625;stroke-linejoin:round;stroke-opacity:1"
         id="path6876"
         inkscape:connector-curvature="0" />
    </marker>
    <marker
       inkscape:stockid="Arrow2Lend"
       orient="auto"
       refY="0"
       refX="0"
       id="marker6816"
       style="overflow:visible"
       inkscape:isstock="true"
       inkscape:collect="always">
      <path
         id="path6818"
         style="fill:#c8e6c9;fill-opacity:1;fill-rule:evenodd;stroke:#c8e6c9;stroke-width:0.625;stroke-linejoin:round;stroke-opacity:1"
         d="M 8.7185878,4.0337352 -2.2072895,0.01601326 8.7185884,-4.0017078 c -1.7454984,2.3720609 -1.7354408,5.6174519 -6e-7,8.035443 z"
         transform="matrix(-1.1,0,0,-1.1,-1.1,0)"
         inkscape:connector-curvature="0" />
    </marker>
    <marker
       inkscape:isstock="true"
       style="overflow:visible"
       id="marker6734"
       refX="0"
       refY="0"
       orient="auto"
       inkscape:stockid="Arrow2Lend">
      <path
         transform="matrix(-1.1,0,0,-1.1,-1.1,0)"
         d="M 8.7185878,4.0337352 -2.2072895,0.01601326 8.7185884,-4.0017078 c -1.7454984,2.3720609 -1.7354408,5.6174519 -6e-7,8.035443 z"
         style="fill:#000000;fill-opacity:1;fill-rule:evenodd;stroke:#000000;stroke-width:0.625;stroke-linejoin:round;stroke-opacity:1"
         id="path6736"
         inkscape:connector-curvature="0" />
    </marker>
    <marker
       inkscape:isstock="true"
       style="overflow:visible"
       id="marker6694"
       refX="0"
       refY="0"
       orient="auto"
       inkscape:stockid="Arrow2Lend">
      <path
         transform="matrix(-1.1,0,0,-1.1,-1.1,0)"
         d="M 8.7185878,4.0337352 -2.2072895,0.01601326 8.7185884,-4.0017078 c -1.7454984,2.3720609 -1.7354408,5.6174519 -6e-7,8.035443 z"
         style="fill:#000000;fill-opacity:1;fill-rule:evenodd;stroke:#000000;stroke-width:0.625;stroke-linejoin:round;stroke-opacity:1"
         id="path6696"
         inkscape:connector-curvature="0" />
    </marker>
    <marker
       inkscape:isstock="true"
       style="overflow:visible"
       id="marker6660"
       refX="0"
       refY="0"
       orient="auto"
       inkscape:stockid="Arrow2Lend">
      <path
         transform="matrix(-1.1,0,0,-1.1,-1.1,0)"
         d="M 8.7185878,4.0337352 -2.2072895,0.01601326 8.7185884,-4.0017078 c -1.7454984,2.3720609 -1.7354408,5.6174519 -6e-7,8.035443 z"
         style="fill:#000000;fill-opacity:1;fill-rule:evenodd;stroke:#000000;stroke-width:0.625;stroke-linejoin:round;stroke-opacity:1"
         id="path6662"
         inkscape:connector-curvature="0" />
    </marker>
    <marker
       inkscape:isstock="true"
       style="overflow:visible"
       id="marker4680"
       refX="0"
       refY="0"
       orient="auto"
       inkscape:stockid="Arrow1Lend">
      <path
         transform="matrix(-0.8,0,0,-0.8,-10,0)"
         style="fill:#c8e6c9;fill-opacity:1;fill-rule:evenodd;stroke:#c8e6c9;stroke-width:1pt;stroke-opacity:1"
         d="M 0,0 5,-5 -12.5,0 5,5 0,0 Z"
         id="path4682"
         inkscape:connector-curvature="0" />
    </marker>
    <marker
       inkscape:isstock="true"
       style="overflow:visible"
       id="marker4632"
       refX="0"
       refY="0"
       orient="auto"
       inkscape:stockid="Arrow1Lend">
      <path
         transform="matrix(-0.8,0,0,-0.8,-10,0)"
         style="fill:#000000;fill-opacity:1;fill-rule:evenodd;stroke:#000000;stroke-width:1pt;stroke-opacity:1"
         d="M 0,0 5,-5 -12.5,0 5,5 0,0 Z"
         id="path4634"
         inkscape:connector-curvature="0" />
    </marker>
  </defs>
  <sodipodi:namedview
     id="base"
     pagecolor="#ffffff"
     bordercolor="#666666"
     borderopacity="1.0"
     inkscape:pageopacity="0"
     inkscape:pageshadow="2"
     inkscape:zoom="1.4"
     inkscape:cx="187.64318"
     inkscape:cy="96.474102"
     inkscape:document-units="mm"
     inkscape:current-layer="layer1"
     showgrid="false"
     showguides="true"
     inkscape:snap-bbox="false"
     inkscape:bbox-nodes="true"
     fit-margin-top="0"
     fit-margin-left="0"
     fit-margin-right="0"
     fit-margin-bottom="0"
     inkscape:showpageshadow="false"
     showborder="true"
     inkscape:window-width="1855"
     inkscape:window-height="1056"
     inkscape:window-x="65"
     inkscape:window-y="24"
     inkscape:window-maximized="1"
     inkscape:guide-bbox="true">
    <inkscape:grid
       type="xygrid"
       id="grid3480"
       originx="-61.417322"
       originy="-179.99997" />
  </sodipodi:namedview>
  <metadata
     id="metadata7">
    <rdf:RDF>
      <cc:Work
         rdf:about="">
        <dc:format>image/svg+xml</dc:format>
        <dc:type
           rdf:resource="http://purl.org/dc/dcmitype/StillImage" />
        <dc:title></dc:title>
      </cc:Work>
    </rdf:RDF>
  </metadata>
  <g
     inkscape:label="Layer 1"
     inkscape:groupmode="layer"
     id="layer1"
     transform="translate(-61.417322,-516.07698)">
    <path
       style="fill:#4caf50;fill-opacity:1"
       inkscape:connector-curvature="0"
       d="m 419.43623,574.85623 -8.8169,0 0,-23.51169 c 0,-6.46572 -5.29014,-11.75586 -11.75585,-11.75586 l -23.5117,0 0,-8.81688 c 0,-8.11155 -6.58329,-14.69482 -14.69483,-14.69482 -8.11155,0 -14.69481,6.58327 -14.69481,14.69482 l 0,8.81688 -23.51172,0 c -6.46572,0 -11.69706,5.29014 -11.69706,11.75586 l 0,22.33611 8.75812,0 c 8.75809,0 15.87039,7.1123 15.87039,15.87039 0,8.75813 -7.1123,15.87043 -15.87039,15.87043 l -8.81691,0 0,22.33612 c 0,6.4657 5.29013,11.75584 11.75585,11.75584 l 22.33614,0 0,-8.81688 c 0,-8.75812 7.11229,-15.87039 15.87039,-15.87039 8.75811,0 15.87041,7.11227 15.87041,15.87039 l 0,8.81688 22.33612,0 c 6.46571,0 11.75585,-5.29014 11.75585,-11.75584 l 0,-23.51173 8.8169,0 c 8.11154,0 14.69482,-6.58327 14.69482,-14.69482 0,-8.11152 -6.58328,-14.69481 -14.69482,-14.69481 z"
       id="path3536-2" />
    <path
       style="fill:none"
       inkscape:connector-curvature="0"
       d="m 61.417322,743.77953 88.582678,0 0,88.58268 -88.582678,0 z"
       id="path3388" />
    <path
       style="fill:#388e3c;fill-opacity:1"
       inkscape:connector-curvature="0"
       d="m 123.04555,734.82283 -46.062987,0 c -6.333661,0 -11.458168,5.18209 -11.458168,11.51575 l -0.05758,92.12598 c 0,6.33367 5.124508,11.51575 11.458169,11.51575 l 69.152066,0 c 6.33366,0 11.51575,-5.18208 11.51575,-11.51575 l 0,-69.09449 -34.54725,-34.54724 z m 11.51575,80.61024 -17.27362,0 0,17.27361 -11.51574,0 0,-17.27361 -17.273629,0 0,-11.51575 17.273629,0 0,-17.27363 11.51574,0 0,17.27363 17.27362,0 0,11.51575 z m -17.27362,-40.30513 0,-31.66829 31.6683,31.66829 -31.6683,0 z"
       id="path3390" />
    <path
       style="fill:none"
       inkscape:connector-curvature="0"
       d="m 576.42857,744.49382 88.58268,0 0,88.58268 -88.58268,0 z"
       id="path3466" />
    <path
       style="fill:#388e3c;fill-opacity:1"
       inkscape:connector-curvature="0"
       d="m 666.17546,835.96862 0,-70.81916 -34.54723,-36.66221 -46.063,0 c -6.33366,0 -11.45816,5.49933 -11.45816,12.22073 l -0.0575,97.76589 c 0,6.72141 5.12451,12.22074 11.45817,12.22074 l 69.15206,0 c 2.59104,0 4.89419,-0.91655 6.85187,-2.44415 L 636.0043,821.18153 c -4.60631,3.1774 -10.01871,5.07161 -15.89174,5.07161 -15.89174,0 -28.78938,-13.68723 -28.78938,-30.55185 0,-16.86461 12.89764,-30.55183 28.78938,-30.55183 15.89174,0 28.78936,13.68722 28.78936,30.55183 0,6.23258 -1.78493,11.97633 -4.77903,16.80352 l 22.05266,23.46381 z m -63.33661,-40.26733 c 0,10.14321 7.71555,18.33111 17.27362,18.33111 9.55808,0 17.27362,-8.1879 17.27362,-18.33111 0,-10.1432 -7.71554,-18.3311 -17.27362,-18.3311 -9.55807,0 -17.27362,8.1879 -17.27362,18.3311 z"
       id="path3468" />
    <path
       style="fill:none"
       inkscape:connector-curvature="0"
       d="m 215,572.3622 70.86614,0 0,70.86614 -70.86614,0 z"
       id="path3534" />
    <path
       style="fill:#388e3c;fill-opacity:1"
       inkscape:connector-curvature="0"
       d="m 405.36144,589.80847 -8.8169,0 0,-23.51169 c 0,-6.46572 -5.29014,-11.75586 -11.75585,-11.75586 l -23.5117,0 0,-8.81688 c 0,-8.11155 -6.58329,-14.69482 -14.69483,-14.69482 -8.11155,0 -14.69481,6.58327 -14.69481,14.69482 l 0,8.81688 -23.51172,0 c -6.46572,0 -11.69706,5.29014 -11.69706,11.75586 l 0,22.33611 8.75812,0 c 8.75809,0 15.87039,7.1123 15.87039,15.87039 0,8.75813 -7.1123,15.87043 -15.87039,15.87043 l -8.81691,0 0,22.33612 c 0,6.4657 5.29013,11.75584 11.75585,11.75584 l 22.33614,0 0,-8.81688 c 0,-8.75812 7.11229,-15.87039 15.87039,-15.87039 8.75811,0 15.87041,7.11227 15.87041,15.87039 l 0,8.81688 22.33612,0 c 6.46571,0 11.75585,-5.29014 11.75585,-11.75584 l 0,-23.51173 8.8169,0 c 8.11154,0 14.69482,-6.58327 14.69482,-14.69482 0,-8.11152 -6.58328,-14.69481 -14.69482,-14.69481 z"
       id="path3536" />
    <text
       xml:space="preserve"
       style="font-style:normal;font-variant:normal;font-weight:normal;font-stretch:normal;font-size:20px;line-height:125%;font-family:sans-serif;-inkscape-font-specification:'sans-serif, Normal';text-align:start;letter-spacing:0px;word-spacing:0px;writing-mode:lr-tb;text-anchor:start;fill:#727272;fill-opacity:1;stroke:none;stroke-width:1px;stroke-linecap:butt;stroke-linejoin:miter;stroke-opacity:1"
       x="80.894249"
       y="869.93616"
       id="text4942"
       sodipodi:linespacing="125%"><tspan
         sodipodi:role="line"
         id="tspan4968"
         x="80.894249"
         y="869.93616">Index</tspan></text>
    <text
       xml:space="preserve"
       style="font-style:normal;font-variant:normal;font-weight:normal;font-stretch:normal;font-size:20px;line-height:125%;font-family:sans-serif;-inkscape-font-specification:'sans-serif, Normal';text-align:start;letter-spacing:0px;word-spacing:0px;writing-mode:lr-tb;text-anchor:start;fill:#727272;fill-opacity:1;stroke:none;stroke-width:1px;stroke-linecap:butt;stroke-linejoin:miter;stroke-opacity:1"
       x="591.20398"
       y="868.20203"
       id="text4942-9"
       sodipodi:linespacing="125%"><tspan
         sodipodi:role="line"
         id="tspan4966"
         x="591.20398"
         y="868.20203">Query</tspan></text>
    <text
       xml:space="preserve"
       style="font-style:normal;font-variant:normal;font-weight:normal;font-stretch:normal;font-size:20px;line-height:125%;font-family:sans-serif;-inkscape-font-specification:'sans-serif, Normal';text-align:start;letter-spacing:0px;word-spacing:0px;writing-mode:lr-tb;text-anchor:start;fill:#727272;fill-opacity:1;stroke:none;stroke-width:1px;stroke-linecap:butt;stroke-linejoin:miter;stroke-opacity:1"
       x="319.04846"
       y="682.41479"
       id="text4942-9-8"
       sodipodi:linespacing="125%"><tspan
         sodipodi:role="line"
         id="tspan4988"
         x="319.04846"
         y="682.41479">Term(s)</tspan></text>
    <path
       style="fill:none"
       inkscape:connector-curvature="0"
       d="m 143.71429,688.75506 24,0 0,24 -24,0 z"
       id="path5066" />
    <path
       style="fill:none"
       inkscape:connector-curvature="0"
       d="m 318.22208,687.74101 24,0 0,24 -24,0 z"
       id="path5066-3" />
    <circle
       style="fill:#ffffff;fill-opacity:1;stroke-width:0.99921262;stroke-miterlimit:4;stroke-dasharray:1.99842525, 0.99921262;stroke-dashoffset:0"
       id="path5175-5"
       cx="156.11914"
       cy="700.83929"
       r="5.0507627" />
    <path
       style="fill:#388e3c;fill-opacity:1"
       inkscape:connector-curvature="0"
       d="m 519.65935,684.10956 c 0.12,-0.96 0.21,-1.92 0.21,-2.94 0,-1.02 -0.09,-1.98 -0.21,-2.94 l 6.33,-4.95 c 0.57,-0.45 0.72,-1.26 0.36,-1.92 l -6,-10.38 c -0.36,-0.66 -1.17,-0.9 -1.83,-0.66 l -7.47,3 c -1.56,-1.2 -3.24,-2.19 -5.07,-2.94 l -1.14,-7.95 c -0.09,-0.72 -0.72,-1.26 -1.47,-1.26 l -12,0 c -0.75,0 -1.38,0.54 -1.47,1.26 l -1.14,7.95 c -1.83,0.75 -3.51,1.77 -5.07,2.94 l -7.47,-3 c -0.69,-0.27 -1.47,0 -1.83,0.66 l -6,10.38 c -0.39,0.66 -0.21,1.47 0.36,1.92 l 6.33,4.95 c -0.12,0.96 -0.21,1.95 -0.21,2.94 0,0.99 0.09,1.98 0.21,2.94 l -6.33,4.95 c -0.57,0.45 -0.72,1.26 -0.36,1.92 l 6,10.38 c 0.36,0.66 1.17,0.9 1.83,0.66 l 7.47,-3 c 1.56,1.2 3.24,2.19 5.07,2.94 l 1.14,7.95 c 0.09,0.72 0.72,1.26 1.47,1.26 l 12,0 c 0.75,0 1.38,-0.54 1.47,-1.26 l 1.14,-7.95 c 1.83,-0.75 3.51,-1.77 5.07,-2.94 l 7.47,3 c 0.69,0.27 1.47,0 1.83,-0.66 l 6,-10.38 c 0.36,-0.66 0.21,-1.47 -0.36,-1.92 l -6.33,-4.95 z m -22.29,7.56 c -5.79,0 -10.5,-4.71 -10.5,-10.5 0,-5.79 4.71,-10.5 10.5,-10.5 5.79,0 10.5,4.71 10.5,10.5 0,5.79 -4.71,10.5 -10.5,10.5 z"
       id="path5068-4" />
    <text
       xml:space="preserve"
       style="font-style:normal;font-variant:normal;font-weight:normal;font-stretch:normal;font-size:20px;line-height:125%;font-family:sans-serif;-inkscape-font-specification:'sans-serif, Normal';text-align:start;letter-spacing:0px;word-spacing:0px;writing-mode:lr-tb;text-anchor:start;fill:#727272;fill-opacity:1;stroke:none;stroke-width:1px;stroke-linecap:butt;stroke-linejoin:miter;stroke-opacity:1"
       x="167.75627"
       y="733.20862"
       id="text4942-6"
       sodipodi:linespacing="125%"><tspan
         sodipodi:role="line"
         id="tspan4968-4"
         x="167.75627"
         y="733.20862">Analyzer</tspan></text>
    <path
       style="fill:#388e3c;fill-opacity:1"
       inkscape:connector-curvature="0"
       d="m 233.28088,685.02092 c 0.12,-0.96 0.21,-1.92 0.21,-2.94 0,-1.02 -0.09,-1.98 -0.21,-2.94 l 6.33,-4.95 c 0.57,-0.45 0.72,-1.26 0.36,-1.92 l -6,-10.38 c -0.36,-0.66 -1.17,-0.9 -1.83,-0.66 l -7.47,3 c -1.56,-1.2 -3.24,-2.19 -5.07,-2.94 l -1.14,-7.95 c -0.09,-0.72 -0.72,-1.26 -1.47,-1.26 l -12,0 c -0.75,0 -1.38,0.54 -1.47,1.26 l -1.14,7.95 c -1.83,0.75 -3.51,1.77 -5.07,2.94 l -7.47,-3 c -0.69,-0.27 -1.47,0 -1.83,0.66 l -6,10.38 c -0.39,0.66 -0.21,1.47 0.36,1.92 l 6.33,4.95 c -0.12,0.96 -0.21,1.95 -0.21,2.94 0,0.99 0.09,1.98 0.21,2.94 l -6.33,4.95 c -0.57,0.45 -0.72,1.26 -0.36,1.92 l 6,10.38 c 0.36,0.66 1.17,0.9 1.83,0.66 l 7.47,-3 c 1.56,1.2 3.24,2.19 5.07,2.94 l 1.14,7.95 c 0.09,0.72 0.72,1.26 1.47,1.26 l 12,0 c 0.75,0 1.38,-0.54 1.47,-1.26 l 1.14,-7.95 c 1.83,-0.75 3.51,-1.77 5.07,-2.94 l 7.47,3 c 0.69,0.27 1.47,0 1.83,-0.66 l 6,-10.38 c 0.36,-0.66 0.21,-1.47 -0.36,-1.92 l -6.33,-4.95 z m -22.29,7.56 c -5.79,0 -10.5,-4.71 -10.5,-10.5 0,-5.79 4.71,-10.5 10.5,-10.5 5.79,0 10.5,4.71 10.5,10.5 0,5.79 -4.71,10.5 -10.5,10.5 z"
       id="path5068-4-1" />
    <text
       xml:space="preserve"
       style="font-style:normal;font-variant:normal;font-weight:normal;font-stretch:normal;font-size:20px;line-height:125%;font-family:sans-serif;-inkscape-font-specification:'sans-serif, Normal';text-align:start;letter-spacing:0px;word-spacing:0px;writing-mode:lr-tb;text-anchor:start;fill:#727272;fill-opacity:1;stroke:none;stroke-width:1px;stroke-linecap:butt;stroke-linejoin:miter;stroke-opacity:1"
       x="455.23788"
       y="733.31281"
       id="text4942-6-7"
       sodipodi:linespacing="125%"><tspan
         sodipodi:role="line"
         id="tspan4968-4-0"
         x="455.23788"
         y="733.31281">Analyzer</tspan></text>
    <path
       style="fill:none;fill-rule:evenodd;stroke:#c8e6c9;stroke-width:1.35354328;stroke-linecap:butt;stroke-linejoin:miter;stroke-miterlimit:4;stroke-dasharray:4.06062984, 1.35354328;stroke-dashoffset:0;stroke-opacity:1;marker-end:url(#marker6942)"
       d="m 613.84139,720.65237 c -40.71428,-55 -80.71428,-45.71429 -80.71428,-45.71429"
       id="path6620"
       inkscape:connector-curvature="0" />
    <path
       style="fill:none;fill-rule:evenodd;stroke:#c8e6c9;stroke-width:1.35354328;stroke-linecap:butt;stroke-linejoin:miter;stroke-miterlimit:4;stroke-dasharray:4.06062984, 1.35354328;stroke-dashoffset:0;stroke-opacity:1;marker-end:url(#marker6884)"
       d="M 97.412822,730.65237 C 142.41282,671.36665 177.41282,677.79522 177.41282,677.79522"
       id="path6622"
       inkscape:connector-curvature="0" />
    <path
       style="fill:none;fill-rule:evenodd;stroke:#c8e6c9;stroke-width:1.35354328;stroke-linecap:butt;stroke-linejoin:miter;stroke-miterlimit:4;stroke-dasharray:4.06062984, 1.35354328;stroke-dashoffset:0;stroke-opacity:1;marker-end:url(#marker6874)"
       d="m 212.41282,645.65237 c 35.71429,-47.14286 77.14286,-48.57143 77.14286,-48.57143"
       id="path6624"
       inkscape:connector-curvature="0" />
    <path
       style="fill:none;fill-rule:evenodd;stroke:#c8e6c9;stroke-width:1.35354328;stroke-linecap:butt;stroke-linejoin:miter;stroke-miterlimit:4;stroke-dasharray:4.06062984, 1.35354328;stroke-dashoffset:0;stroke-opacity:1;marker-end:url(#marker6816)"
       d="m 493.84139,645.65237 c -28.57143,-42.14286 -55,-50 -55,-50"
       id="path6626"
       inkscape:connector-curvature="0" />
  </g>
</svg>
