<?xml version="1.0" encoding="UTF-8" standalone="no"?>
<!-- Created with Inkscape (http://www.inkscape.org/) -->

<svg
   xmlns:dc="http://purl.org/dc/elements/1.1/"
   xmlns:cc="http://creativecommons.org/ns#"
   xmlns:rdf="http://www.w3.org/1999/02/22-rdf-syntax-ns#"
   xmlns:svg="http://www.w3.org/2000/svg"
   xmlns="http://www.w3.org/2000/svg"
   xmlns:sodipodi="http://sodipodi.sourceforge.net/DTD/sodipodi-0.dtd"
   xmlns:inkscape="http://www.inkscape.org/namespaces/inkscape"
   width="156.11024mm"
   height="97.920708mm"
   viewBox="0 0 553.14654 346.96314"
   id="svg2"
   version="1.1"
   inkscape:version="0.91 r"
   sodipodi:docname="saving-a-document-to-the-index.svg"
   inkscape:export-filename="/home/elzekool/talk/images/saving-a-document-to-the-index.png"
   inkscape:export-xdpi="90.009552"
   inkscape:export-ydpi="90.009552">
  <defs
     id="defs4">
    <marker
       inkscape:stockid="Arrow2Lend"
       orient="auto"
       refY="0"
       refX="0"
       id="marker5565"
       style="overflow:visible"
       inkscape:isstock="true">
      <path
         id="path5567"
         style="fill:#c8e6c9;fill-opacity:1;fill-rule:evenodd;stroke:#c8e6c9;stroke-width:0.625;stroke-linejoin:round;stroke-opacity:1"
         d="M 8.7185878,4.0337352 -2.2072895,0.01601326 8.7185884,-4.0017078 c -1.7454984,2.3720609 -1.7354408,5.6174519 -6e-7,8.035443 z"
         transform="matrix(-1.1,0,0,-1.1,-1.1,0)"
         inkscape:connector-curvature="0" />
    </marker>
    <marker
       inkscape:isstock="true"
       style="overflow:visible"
       id="marker5457"
       refX="0"
       refY="0"
       orient="auto"
       inkscape:stockid="Arrow2Lend">
      <path
         transform="matrix(-1.1,0,0,-1.1,-1.1,0)"
         d="M 8.7185878,4.0337352 -2.2072895,0.01601326 8.7185884,-4.0017078 c -1.7454984,2.3720609 -1.7354408,5.6174519 -6e-7,8.035443 z"
         style="fill:#000000;fill-opacity:1;fill-rule:evenodd;stroke:#000000;stroke-width:0.625;stroke-linejoin:round;stroke-opacity:1"
         id="path5459"
         inkscape:connector-curvature="0" />
    </marker>
    <marker
       inkscape:isstock="true"
       style="overflow:visible"
       id="marker5423"
       refX="0"
       refY="0"
       orient="auto"
       inkscape:stockid="Arrow2Lend">
      <path
         transform="matrix(-1.1,0,0,-1.1,-1.1,0)"
         d="M 8.7185878,4.0337352 -2.2072895,0.01601326 8.7185884,-4.0017078 c -1.7454984,2.3720609 -1.7354408,5.6174519 -6e-7,8.035443 z"
         style="fill:#c8e6c9;fill-opacity:1;fill-rule:evenodd;stroke:#c8e6c9;stroke-width:0.625;stroke-linejoin:round;stroke-opacity:1"
         id="path5425"
         inkscape:connector-curvature="0" />
    </marker>
    <marker
       inkscape:isstock="true"
       style="overflow:visible"
       id="marker5395"
       refX="0"
       refY="0"
       orient="auto"
       inkscape:stockid="Arrow2Lend">
      <path
         transform="matrix(-1.1,0,0,-1.1,-1.1,0)"
         d="M 8.7185878,4.0337352 -2.2072895,0.01601326 8.7185884,-4.0017078 c -1.7454984,2.3720609 -1.7354408,5.6174519 -6e-7,8.035443 z"
         style="fill:#c8e6c9;fill-opacity:1;fill-rule:evenodd;stroke:#c8e6c9;stroke-width:0.625;stroke-linejoin:round;stroke-opacity:1"
         id="path5397"
         inkscape:connector-curvature="0" />
    </marker>
    <marker
       inkscape:stockid="Arrow2Lend"
       orient="auto"
       refY="0"
       refX="0"
       id="Arrow2Lend"
       style="overflow:visible"
       inkscape:isstock="true">
      <path
         id="path4274"
         style="fill:#c8e6c9;fill-opacity:1;fill-rule:evenodd;stroke:#c8e6c9;stroke-width:0.625;stroke-linejoin:round;stroke-opacity:1"
         d="M 8.7185878,4.0337352 -2.2072895,0.01601326 8.7185884,-4.0017078 c -1.7454984,2.3720609 -1.7354408,5.6174519 -6e-7,8.035443 z"
         transform="matrix(-1.1,0,0,-1.1,-1.1,0)"
         inkscape:connector-curvature="0" />
    </marker>
  </defs>
  <sodipodi:namedview
     id="base"
     pagecolor="#ffffff"
     bordercolor="#666666"
     borderopacity="1.0"
     inkscape:pageopacity="0.0"
     inkscape:pageshadow="2"
     inkscape:zoom="1.4"
     inkscape:cx="229.7275"
     inkscape:cy="192.29953"
     inkscape:document-units="mm"
     inkscape:current-layer="layer1"
     showgrid="false"
     fit-margin-top="0"
     fit-margin-left="0"
     fit-margin-right="0"
     fit-margin-bottom="0"
     inkscape:window-width="1855"
     inkscape:window-height="1056"
     inkscape:window-x="65"
     inkscape:window-y="24"
     inkscape:window-maximized="1" />
  <metadata
     id="metadata7">
    <rdf:RDF>
      <cc:Work
         rdf:about="">
        <dc:format>image/svg+xml</dc:format>
        <dc:type
           rdf:resource="http://purl.org/dc/dcmitype/StillImage" />
        <dc:title></dc:title>
      </cc:Work>
    </rdf:RDF>
  </metadata>
  <g
     inkscape:label="Layer 1"
     inkscape:groupmode="layer"
     id="layer1"
     transform="translate(-21.412523,-34.076507)">
    <path
       style="fill:#388e3c;fill-opacity:1"
       inkscape:connector-curvature="0"
       d="m 103.26191,256.83839 -35.214287,0 c -6.455952,0 -11.679404,5.28214 -11.679404,11.7381 l -0.05869,70.42857 c 0,6.45595 5.282143,11.73809 11.738095,11.73809 l 93.904756,0 c 6.45596,0 11.7381,-5.28214 11.7381,-11.73809 l 0,-58.69048 c 0,-6.45595 -5.28214,-11.73809 -11.7381,-11.73809 l -46.95238,0 -11.73809,-11.7381 z"
       id="path3404" />
    <path
       style="fill:none"
       inkscape:connector-curvature="0"
       d="m 44.571433,233.3622 140.857147,0 0,140.85714 -140.857147,0 z"
       id="path3406" />
    <path
       style="fill:#388e3c;fill-opacity:1"
       inkscape:connector-curvature="0"
       d="m 437.54763,258.26697 -35.21429,0 c -6.45595,0 -11.6794,5.28214 -11.6794,11.7381 l -0.0587,70.42857 c 0,6.45595 5.28214,11.73809 11.73809,11.73809 l 93.90476,0 c 6.45595,0 11.7381,-5.28214 11.7381,-11.73809 l 0,-58.69048 c 0,-6.45595 -5.28215,-11.73809 -11.7381,-11.73809 l -46.95238,0 -11.73809,-11.7381 z"
       id="path3404-6" />
    <path
       style="fill:none"
       inkscape:connector-curvature="0"
       d="m 378.85715,234.79078 140.85714,0 0,140.85714 -140.85714,0 z"
       id="path3406-7" />
    <path
       style="fill:none;fill-rule:evenodd;stroke:#c8e6c9;stroke-width:2.18584728;stroke-linecap:butt;stroke-linejoin:miter;stroke-miterlimit:4;stroke-dasharray:6.55754163, 2.18584721;stroke-dashoffset:0;stroke-opacity:1;marker-end:url(#Arrow2Lend)"
       d="m 127.35211,247.40183 c 0,0 42.27322,-61.18899 113.92274,-61.18899 71.64952,0 108.19077,-6.07551 159.77844,27.33976 51.58765,33.41526 51.58765,33.41526 51.58765,33.41526"
       id="path3447"
       inkscape:connector-curvature="0" />
    <path
       style="fill:none"
       inkscape:connector-curvature="0"
       d="m 202.42857,51.219347 147.28572,0 0,147.285713 -147.28572,0 z"
       id="path4962" />
    <path
       style="fill:#388e3c;fill-opacity:1"
       inkscape:connector-curvature="0"
       d="m 286.20238,104.92173 -49.09524,0 c -6.7506,0 -12.21244,5.52321 -12.21244,12.27381 l -0.0614,98.19047 c 0,6.7506 5.46184,12.27381 12.21244,12.27381 l 73.70423,0 c 6.75059,0 12.27381,-5.52321 12.27381,-12.27381 l 0,-73.64285 -36.82143,-36.82143 z m 12.27381,98.19047 -49.09524,0 0,-12.27381 49.09524,0 0,12.27381 z m 0,-24.54762 -49.09524,0 0,-12.27381 49.09524,0 0,12.27381 z m -18.41072,-30.68452 0,-33.75297 33.75298,33.75297 -33.75298,0 z"
       id="path4964" />
    <text
       xml:space="preserve"
       style="font-style:normal;font-weight:normal;font-size:40px;line-height:125%;font-family:Sans;letter-spacing:0px;word-spacing:0px;fill:#727272;fill-opacity:1;stroke:none;stroke-width:1px;stroke-linecap:butt;stroke-linejoin:miter;stroke-opacity:1"
       x="226.42857"
       y="251.64792"
       id="text5006"
       sodipodi:linespacing="125%"><tspan
         sodipodi:role="line"
         id="tspan5008"
         x="226.42857"
         y="251.64792"
         style="font-style:normal;font-variant:normal;font-weight:normal;font-stretch:normal;font-size:20px;font-family:'Droid Sans';-inkscape-font-specification:'Droid Sans';fill:#727272;fill-opacity:1">Document</tspan></text>
    <text
       xml:space="preserve"
       style="font-style:normal;font-weight:normal;font-size:40px;line-height:125%;font-family:Sans;letter-spacing:0px;word-spacing:0px;fill:#727272;fill-opacity:1;stroke:none;stroke-width:1px;stroke-linecap:butt;stroke-linejoin:miter;stroke-opacity:1"
       x="336.75641"
       y="375.11752"
       id="text5006-5"
       sodipodi:linespacing="125%"><tspan
         sodipodi:role="line"
         x="336.75641"
         y="375.11752"
         style="font-style:normal;font-variant:normal;font-weight:normal;font-stretch:normal;font-size:20px;font-family:'Droid Sans';-inkscape-font-specification:'Droid Sans';fill:#727272;fill-opacity:1"
         id="tspan5028">Index (SOLR/Elasticsearch)</tspan></text>
    <text
       xml:space="preserve"
       style="font-style:normal;font-weight:normal;font-size:40px;line-height:125%;font-family:Sans;letter-spacing:0px;word-spacing:0px;fill:#727272;fill-opacity:1;stroke:none;stroke-width:1px;stroke-linecap:butt;stroke-linejoin:miter;stroke-opacity:1"
       x="21.412523"
       y="376.23495"
       id="text5006-5-5"
       sodipodi:linespacing="125%"><tspan
         sodipodi:role="line"
         x="21.412523"
         y="376.23495"
         style="font-style:normal;font-variant:normal;font-weight:normal;font-stretch:normal;font-size:20px;font-family:'Droid Sans';-inkscape-font-specification:'Droid Sans';fill:#727272;fill-opacity:1"
         id="tspan5028-6">Application storage</tspan></text>
    <path
       style="fill:#388e3c;fill-opacity:1"
       inkscape:connector-curvature="0"
       d="m 410.30953,111.84435 82.95238,0 0,-10.36905 -82.95238,0 0,10.36905 z m 0,20.73809 82.95238,0 0,-10.36904 -82.95238,0 0,10.36904 z m 0,-41.476186 82.95238,0 0,-10.369048 -82.95238,0 0,10.369048 z m 0,-31.107143 0,10.369048 82.95238,0 0,-10.369048 -82.95238,0 z"
       id="path5345" />
    <path
       style="fill:none"
       inkscape:connector-curvature="0"
       d="m 389.57143,34.076492 124.42857,0 0,124.428568 -124.42857,0 0,-124.428568 z"
       id="path5347" />
    <path
       style="fill:none;fill-rule:evenodd;stroke:#c8e6c9;stroke-width:1.6;stroke-linecap:butt;stroke-linejoin:miter;stroke-miterlimit:4;stroke-dasharray:6.4, 1.60000000000000009;stroke-dashoffset:0;stroke-opacity:1;marker-end:"
       d="m 402.14286,127.36221 c -8.57143,-3.57143 -46.42857,-4.28572 -62.85714,0 -16.42857,4.28571 -16.42857,4.28571 -16.42857,4.28571"
       id="path5359"
       inkscape:connector-curvature="0" />
    <path
       style="fill:none;fill-rule:evenodd;stroke:#c8e6c9;stroke-width:1.6;stroke-linecap:butt;stroke-linejoin:miter;stroke-miterlimit:4;stroke-dasharray:6.4, 1.60000000000000009;stroke-dashoffset:0;stroke-opacity:1;marker-end:"
       d="m 402.85715,107.36221 c -67.14286,-1.42858 -89.28572,17.85714 -89.28572,17.85714"
       id="path5361"
       inkscape:connector-curvature="0" />
    <path
       style="fill:none;fill-rule:evenodd;stroke:#c8e6c9;stroke-width:1.6;stroke-linecap:butt;stroke-linejoin:miter;stroke-miterlimit:4;stroke-dasharray:6.4, 1.60000000000000009;stroke-dashoffset:0;stroke-opacity:1;marker-end:"
       d="m 402.14286,86.647918 c 0,0 -72.85714,11.428571 -85,19.285712 C 305,113.79078 305,113.07649 305,113.07649 l -1.42857,1.42857"
       id="path5363"
       inkscape:connector-curvature="0" />
    <path
       style="fill:none;fill-rule:evenodd;stroke:#c8e6c9;stroke-width:1.6;stroke-linecap:butt;stroke-linejoin:miter;stroke-miterlimit:4;stroke-dasharray:6.4, 1.60000000000000009;stroke-dashoffset:0;stroke-opacity:1;marker-end:"
       d="m 400.71429,63.790775 c 0,0 -77.85715,8.571429 -92.14286,25 -14.28572,16.428575 -14.28572,16.428575 -14.28572,16.428575"
       id="path5563"
       inkscape:connector-curvature="0" />
    <text
       xml:space="preserve"
       style="font-style:normal;font-weight:normal;font-size:40px;line-height:125%;font-family:Sans;letter-spacing:0px;word-spacing:0px;fill:#727272;fill-opacity:1;stroke:none;stroke-width:1px;stroke-linecap:butt;stroke-linejoin:miter;stroke-opacity:1"
       x="428.185"
       y="155.11749"
       id="text5006-2"
       sodipodi:linespacing="125%"><tspan
         sodipodi:role="line"
         id="tspan5008-9"
         x="428.185"
         y="155.11749"
         style="font-style:normal;font-variant:normal;font-weight:normal;font-stretch:normal;font-size:20px;font-family:'Droid Sans';-inkscape-font-specification:'Droid Sans';fill:#727272;fill-opacity:1">Fields</tspan></text>
  </g>
</svg>
